{
  "openapi": "3.0.1",
  "info": {
    "title": "test-pro-main-api",
    "license": {
      "name": "See License"
    },
    "version": "1.0.0"
  },
  "servers": [
    {
      "url": "http://localhost:3000"
    }
  ],
  "paths": {
    "/upload-images": {
      "post": {
        "tags": ["CORS"],
        "parameters": [
          {
            "name": "Authorization",
            "in": "header",
            "required": true,
            "schema": {
              "type": "string"
            }
          }
        ],
        "requestBody": {
          "content": {
            "application/json": {
              "schema": {
                "$ref": "#/components/schemas/signedUlrRequest"
              }
            }
          },
          "required": true
        },
        "responses": {
          "200": {
            "description": "200 response",
            "headers": {
              "Access-Control-Allow-Origin": {
                "schema": {
                  "type": "string"
                }
              },
              "Access-Control-Allow-Methods": {
                "schema": {
                  "type": "string"
                }
              },
              "Access-Control-Allow-Headers": {
                "schema": {
                  "type": "string"
                }
              },
              "Feature-Security-Policy": {
                "schema": {
                  "type": "string"
                }
              }
            },
            "content": {
              "application/json": {
                "schema": {
                  "$ref": "#/components/schemas/signedUlrResponse"
                }
              },
              "application/json;charset=UTF-8": {
                "schema": {
                  "$ref": "#/components/schemas/signedUlrResponse"
                }
              }
            }
          },
          "422": {
            "description": "422 response",
            "content": {}
          },
          "500": {
            "description": "500 response",
            "content": {}
          }
        },
        "x-amazon-apigateway-request-validator": "body-only",
        "x-amazon-apigateway-integration": {
          "uri": "arn:aws:apigateway:us-east-2:lambda:path/2015-03-31/functions/arn:aws:lambda:us-east-2:411708312068:function:test-pro-upload-image/invocations",
          "responses": {
            "default": {
              "statusCode": "200"
            }
          },
          "passthroughBehavior": "when_no_match",
          "httpMethod": "POST",
          "contentHandling": "CONVERT_TO_TEXT",
          "type": "aws_proxy"
        },
        "x-codegen-request-body-name": "signedUlrRequest"
      },
      "options": {
        "tags": ["CORS"],
        "parameters": [],
        "responses": {
          "200": {
            "description": "200 response",
            "headers": {
              "Access-Control-Allow-Origin": {
                "schema": {
                  "type": "string"
                }
              },
              "Access-Control-Allow-Methods": {
                "schema": {
                  "type": "string"
                }
              },
              "Access-Control-Allow-Headers": {
                "schema": {
                  "type": "string"
                }
              }
            },
            "content": {}
          }
        },
        "x-amazon-apigateway-integration": {
          "responses": {
            "default": {
              "statusCode": "200",
              "responseParameters": {
                "method.response.header.Access-Control-Allow-Methods": "'POST,GET,PUT,OPTIONS'",
                "method.response.header.Access-Control-Allow-Headers": "'Content-Type,X-Amz-Date,X-Api-Key,X-Amz-Security-Token'",
                "method.response.header.Access-Control-Allow-Origin": "'*'"
              }
            }
          },
          "requestTemplates": {
            "application/json": "{\"statusCode\" : 200}"
          },
          "passthroughBehavior": "when_no_match",
          "type": "mock"
        }
      }
    }
  },
  "components": {
    "schemas": {
      "signedUlrRequest": {},
      "signedUlrResponse": {
        "type": "string"
      }
    }
  },
  "x-amazon-apigateway-request-validators": {
    "all": {
      "validateRequestBody": true,
      "validateRequestParameters": true
    },
    "body-only": {
      "validateRequestBody": true,
      "validateRequestParameters": false
    },
    "query-only": {
      "validateRequestBody": false,
      "validateRequestParameters": true
    }
  }
}
